Export Square_Root.vcd
$date
	Wed May 29 04:17:33 2024
$end
$version
	GTKWave Analyzer v3.3.100 (w)1999-2019 BSI
$end
$timescale
	1ns
$end
$scope module phoeniX_Testbench $end
$scope module uut $end
$var wire 1 5 read_enable_1_FD_wire $end
$upscope $end
$var wire 32 *! x18_s2[31:0] $end
$var wire 32 +! x19_s3[31:0] $end
$var wire 32 )! x17_a7[31:0] $end
$var wire 64 ;! mcycle[63:0] $end
$var wire 32 8! alu_csr[31:0] $end
$var wire 32 ,! x20_s4[31:0] $end
$var wire 32 (! x16_a6[31:0] $end
$var wire 32 -! x21_s5[31:0] $end
$var wire 32 .! x22_s6[31:0] $end
$var wire 32 "! x10_a0[31:0] $end
$var wire 32 #! x11_a1[31:0] $end
$var wire 32 %! x13_a3[31:0] $end
$var wire 32 0! x24_s8[31:0] $end
$var wire 32 $! x12_a2[31:0] $end
$scope module uut $end
$var wire 32 d execution_result_MW_reg[31:0] $end
$upscope $end
$var wire 32 /! x23_s7[31:0] $end
$var wire 32 2! x26_s10[31:0] $end
$var wire 32 :! div_csr[31:0] $end
$var wire 32 9! mul_csr[31:0] $end
$var wire 32 &! x14_a4[31:0] $end
$var wire 32 1! x25_s9[31:0] $end
$var wire 32 w x1_ra[31:0] $end
$var wire 64 <! minstret[63:0] $end
$var wire 32 v x0_zero[31:0] $end
$var wire 32 '! x15_a5[31:0] $end
$scope module uut $end
$var wire 5 4 read_index_1_FD_wire[4:0] $end
$upscope $end
$var wire 32 5! x29_t4[31:0] $end
$var wire 32 7! x31_t6[31:0] $end
$var wire 32 ~ x8_s0[31:0] $end
$scope module uut $end
$var wire 1 E write_enable_csr_FD_wire $end
$upscope $end
$var wire 32 { x5_t0[31:0] $end
$scope module uut $end
$var wire 32 A rs2_FD_wire[31:0] $end
$upscope $end
$var wire 32 4! x28_t3[31:0] $end
$var wire 32 | x6_t1[31:0] $end
$var wire 1 " reset $end
$var wire 32 } x7_t2[31:0] $end
$scope module uut $end
$var wire 32 = rs1_FD_wire[31:0] $end
$var wire 32 * instruction_memory_interface_data[31:0] $end
$var wire 1 C read_enable_csr_FD_wire $end
$var wire 1 7 read_enable_2_FD_wire $end
$upscope $end
$var wire 32 x x2_sp[31:0] $end
$var wire 32 y x3_gp[31:0] $end
$var wire 32 !! x9_s1[31:0] $end
$var wire 32 3! x27_s11[31:0] $end
$var wire 32 z x4_tp[31:0] $end
$scope module uut $end
$var wire 1 $ clk $end
$upscope $end
$var wire 32 6! x30_t5[31:0] $end
$scope module uut $end
$var wire 5 8 write_index_FD_wire[4:0] $end
$var wire 32 r data_memory_interface_data[31:0] $end
$var wire 1 9 write_enable_FD_wire $end
$var wire 5 6 read_index_2_FD_wire[4:0] $end
$var wire 1 R jump_branch_enable_EX_wire $end
$var wire 3 . instruction_type_FD_wire[2:0] $end
$var wire 32 Q address_EX_wire[31:0] $end
$var wire 12 B csr_index_FD_wire[11:0] $end
$var wire 32 f load_data_MW_wire[31:0] $end
$var wire 1 W mul_busy_EX_wire $end
$var wire 4 ) instruction_memory_interface_frame_mask[3:0] $end
$var wire 32 p data_memory_interface_address[31:0] $end
$var wire 1 & instruction_memory_interface_enable $end
$var wire 32 ; FW_source_1[31:0] $end
$var wire 1 @ FW_enable_2 $end
$var wire 1 < FW_enable_1 $end
$var wire 1 X div_busy_EX_wire $end
$var wire 1 ' instruction_memory_interface_state $end
$var wire 32 Y csr_data_EX_reg[31:0] $end
$var wire 32 U div_output_EX_wire[31:0] $end
$var wire 12 \ csr_index_EX_reg[11:0] $end
$var wire 12 2 funct12_FD_wire[11:0] $end
$var wire 7 1 funct7_FD_wire[6:0] $end
$var wire 1 o data_memory_interface_state $end
$var wire 32 , next_pc_FD_wire[31:0] $end
$var wire 32 > RF_source_2[31:0] $end
$var wire 32 : RF_source_1[31:0] $end
$var wire 32 ( instruction_memory_interface_address[31:0] $end
$var wire 32 ? FW_source_2[31:0] $end
$var wire 32 T mul_output_EX_wire[31:0] $end
$var wire 32 V execution_result_EX_reg[31:0] $end
$var wire 32 S alu_output_EX_wire[31:0] $end
$var wire 4 q data_memory_interface_frame_mask[3:0] $end
$var wire 32 Z csr_rd_EX_wire[31:0] $end
$var wire 32 [ csr_data_out_EX_wire[31:0] $end
$var wire 7 / opcode_FD_wire[6:0] $end
$var wire 32 3 immediate_FD_wire[31:0] $end
$var wire 1 n data_memory_interface_enable $end
$var wire 3 0 funct3_FD_wire[2:0] $end
$var wire 32 D csr_data_FD_wire[31:0] $end
$var wire 32 k rs2_MW_reg[31:0] $end
$var wire 7 b funct7_MW_reg[6:0] $end
$var wire 2 % stall_condition[1:2] $end
$var wire 32 ^ pc_MW_reg[31:0] $end
$var wire 7 H opcode_EX_reg[6:0] $end
$var wire 3 a funct3_MW_reg[2:0] $end
$var wire 1 i write_enable_MW_reg $end
$var wire 1 P write_enable_EX_reg $end
$var wire 3 _ instruction_type_MW_reg[2:0] $end
$var wire 12 K funct12_EX_reg[11:0] $end
$var wire 32 e immediate_MW_reg[31:0] $end
$var wire 32 G next_pc_EX_reg[31:0] $end
$var wire 32 - instruction_FD_reg[31:0] $end
$var wire 32 F pc_EX_reg[31:0] $end
$var wire 5 ] read_index_1_EX_reg[4:0] $end
$var wire 7 ` opcode_MW_reg[6:0] $end
$var wire 32 N rs2_EX_reg[31:0] $end
$var wire 32 g write_data_MW_reg[31:0] $end
$var wire 5 h write_index_MW_reg[4:0] $end
$var wire 3 I funct3_EX_reg[2:0] $end
$var wire 32 L immediate_EX_reg[31:0] $end
$var wire 12 c funct12_MW_reg[11:0] $end
$var wire 7 J funct7_EX_reg[6:0] $end
$var wire 32 M rs1_EX_reg[31:0] $end
$var wire 32 + pc_FD_reg[31:0] $end
$var wire 5 O write_index_EX_reg[4:0] $end
$scope module fetch_unit $end
$var wire 1 # enable $end
$upscope $end
$scope module register_file $end
$var wire 32 s write_data[31:0] $end
$upscope $end
$scope module load_store_unit $end
$var wire 32 m store_data_reg[31:0] $end
$var wire 32 l store_data[31:0] $end
$upscope $end
$scope module register_file $end
$var wire 1 u write_enable $end
$var wire 5 t write_index[4:0] $end
$upscope $end
$scope module load_store_unit $end
$var wire 32 j load_data[31:0] $end
$upscope $end
$upscope $end
$upscope $end
$enddefinitions $end
$dumpvars
#0
0@
bx a
bx *
bx \
0<
b0 )!
05
b0 *!
b0 {
b0 (!
bx d
bx U
z'
0X
bz A
b0 4!
bx Y
b0 /!
bz ?
xo
bz 1
b0 |
bz 2
1"
b0 -!
b0 2!
bz (
bz >
bz ,
b0 }
bz =
bz :
b0 :!
1$
bz 3
bx S
b0 ;!
bx T
bx V
0C
b0 .!
b0 9!
bz /
bx Z
bx q
07
b0 x
bx [
b0 &!
bx H
bz D
bz 0
b0 y
xn
b0 !!
b0 "!
b0 1!
bx ^
bx b
bx k
b0 3!
b0 z
b0 %
b0 w
bz ;
bx Q
bz -
xP
b0 8!
xi
b0 +!
b0 6!
b0 #!
b0 <!
bx G
bx K
bx _
bz 8
bx r
bx e
b0 v
bx L
bx `
bx ]
09
bx F
bz 6
b0 %!
b0 '!
bx I
bx g
bx N
xR
bz .
bx h
bz 4
0E
bx m
bx M
b0 ,!
bx c
bx J
bz B
b0 0!
b0 5!
bx s
bx O
b0 +
bx f
0W
0#
b0 7!
0&
b0 ~
xu
bz )
bx l
b0 $!
bx j
bx p
bx t
#1
bz *
0$
#2
1$
bz \
bz U
bz Y
bz T
bz S
bz V
bz Z
bz [
bz H
bz Q
0P
bz K
bz G
0R
bz ]
bz L
bz N
b0 F
bz I
bz M
bz J
bz O
#3
0$
#4
1$
bz a
bz d
zo
bz t
bz q
bz k
0n
bz b
b0 ^
0i
bz p
bz _
bz r
bz e
bz `
bz g
bz f
bz h
bz c
bz m
bz j
bz s
bz l
0u
#5
0$
#6
1$
#7
0$
#8
1$
#9
0$
#10
1$
0'
b100 ,
0"
b0 (
1#
1&
b1111 )
#11
b100000000000000010100010011 *
b0 =
15
b10 1
0$
b1000000 2
b0 :
b1000000 3
b10011 /
b0 0
b1 .
b1010 8
b100000000000000010100010011 -
19
b0 6
b0 4
b1000000 B
#12
bz B
bz /
bz 1
b1000 ,
b1010 O
05
b1000000 \
bz =
bz *
bz 3
bz 2
b1 ;!
1$
bz :
b1000000 S
b1000000 V
bz 4
bz -
bz 0
b10 J
b10011 H
bz 8
b1000000 L
b1000000 K
1P
bz .
b100 G
b0 ]
bz 6
09
b0 I
b0 M
b100 +
b100 (
#13
b10011 /
b0 B
15
b0 1
b0 :
b0 3
b0 =
b1010010011 *
0$
b0 2
b1 .
b1010010011 -
b0 4
b0 0
b101 8
19
b0 6
#14
bz 6
1$
bz B
b0 S
b10 b
b0 \
bz /
b1000 (
b101 O
b1100 ,
b0 a
1u
bz *
bz :
05
b1000000 d
bz 1
bz =
bz 3
b10 ;!
b1010 t
09
bz 4
bz 2
b1000000 e
b1000 +
b0 V
bz -
b0 J
1i
bz .
b0 K
b1 _
b0 L
bz 8
bz 0
b1000000 c
b1000000 g
b1000 G
b10011 `
b1010 h
b100 F
b1000000 s
#15
b100101 B
b101 6
1@
b0 A
1<
0$
b0 ?
b110011 /
b0 >
b0 :
17
b10010100101000001100110011 *
b0 =
15
b1 1
b100101 2
b0 ;
b101 4
19
b0 .
b10010100101000001100110011 -
b0 0
b110 8
#16
bz 8
05
bz ?
0@
bz B
bz ,
bz )
b0 s
b11 ;!
bz 6
b10 %
1$
b110 O
z'
0<
b100101 \
b0 b
bz A
bz (
bz =
bz >
bx T
bz /
bz *
bz :
07
b1000000 "!
b0 d
bz 0
09
bz 2
b100101 K
b101 t
0&
b100 ^
bz 1
b1000 F
b1 <!
b0 N
bz 4
b1100 +
b110011 H
b0 e
bz ;
bx V
b1 J
bz -
bz .
b101 h
b101 ]
b1100 G
bz L
b0 g
0#
b0 c
1W
#17
0$
#18
1$
b100 ;!
0u
b0 t
b10 <!
0i
b0 h
#19
0$
#20
1$
b101 ;!
#21
0$
#22
1$
b110 ;!
#23
0$
#24
1$
b111 ;!
#25
0$
#26
1$
b1000 ;!
0W
b1111 )
b10000 ,
b0 %
0'
b1100 (
b0 T
1&
1#
b0 V
#27
b1010 B
15
b1100 8
0$
b1010 6
1<
b0 =
b1000000 A
b1100 3
17
b1000000 >
b0 :
b101000110101011001100011 *
b1100011 /
b1010 2
b101 0
b0 ;
b0 1
b110 4
b11 .
b101000110101011001100011 -
#28
bz -
bz *
1$
bz B
b10000 (
b10100 ,
b1001 ;!
bz V
bz 8
b1 b
bz S
05
b1010 \
b1100 O
bz :
bz =
bz 6
b110 h
0<
bz >
b0 k
07
bz A
bz 3
bz .
bz ;
bz 2
1i
b11000 Q
b110 t
bz /
b1010 K
b1000 ^
bz 0
bz e
b1100 F
b1000000 N
0P
1u
b100101 c
b1100011 H
b10000 +
bz 4
bz 1
b0 _
bz T
b0 J
b1100 L
b10000 G
b110 ]
b110011 `
b101 I
b0 l
#29
15
0$
b100101000001010010011 *
b100101000001010010011 -
b1 B
b101 8
b0 =
b0 :
b1 6
b1 3
b1 .
19
b1 2
b0 0
b10011 /
b101 4
b0 1
#30
bz 1
bz :
bz -
1$
b1000000 l
b10100 (
05
bz s
bz *
b1010 ;!
b11000 ,
b1 S
b1 V
b0 b
bz =
bz B
b101 O
b1 \
b101 a
bz 8
b1000000 k
b1100 h
bz 4
bz 2
bz 3
b0 I
bz d
b1010 c
b1100 t
bz 6
bz Q
0i
09
bz .
0u
b1100 ^
b1 K
1P
b10000 F
b1100 e
bz N
bz /
bz 0
b11 <!
b10100 +
b10011 H
b1100011 `
b11 _
b101 ]
b1 L
bz g
b10100 G
#31
b1111111 1
0$
b11111111010111111111000001101111 -
b11111111010111111111000001101111 *
b0 8
b111111110101 B
b11111111111111111111111111110100 3
b111111110101 2
b11111 4
b10101 6
b101 .
b1101111 /
b111 0
#32
bz 0
bz 8
1$
b11000 G
bz l
bz k
bz S
bz 1
b11000 (
b11100 ,
b1 s
b1011 ;!
bz *
bz -
bz V
b0 a
b0 O
b111111110101 \
bz /
bz 4
bz B
b1 g
b101 h
b10100 F
b101 t
b1 c
b1 d
b111 I
bz 2
0P
1i
b1000 Q
bz 3
b111111110101 K
1u
b10000 ^
1R
bz .
bz 6
b11000 +
b1111111 J
b1 e
b11111111111111111111111111110100 L
bz M
b100 <!
b11111 ]
b10011 `
b1101111 H
b1 _
#33
b0 0
b0 :
0$
b101 8
15
b1111111 1
b1 =
b11111111111100101000001010010011 *
b11111111111100101000001010010011 -
1<
b111111111111 B
b1 ;
b101 4
b10011 /
19
b11111111111111111111111111111111 3
b111111111111 2
b1 .
b11111 6
#34
bz 6
bz -
bz 8
bz 0
b1100 ,
b101 _
b1 {
1$
b1000 (
bz :
bx S
bz *
b111 a
b1100 ;!
b11000 s
b1111111 b
bz =
bx V
bz 1
05
bz .
09
bz B
0<
b0 t
b10011 H
0u
b0 h
b11000 g
bz /
b0 K
b0 I
bz d
b111111110101 c
bz 4
bz ;
bz Q
0i
bz 2
bz 3
b11111111111111111111111111110100 e
b10100 ^
0R
b1101111 `
b0 J
b1000 +
b0 L
b101 <!
#35
b1 1
b0 0
b101 6
b1 A
b110 8
b10010100101000001100110011 -
0$
b10010100101000001100110011 *
b1 :
17
b1 =
b1 >
b100101 B
15
19
b0 .
b101 4
b110011 /
b100101 2
#36
bz 2
bz =
bz 8
bz 6
b110 <!
bz (
b1100 G
bz 0
bz 1
b110 O
bz A
bz ,
bz )
1W
b1 _
07
1$
b0 V
b0 a
z'
bz -
bz :
b1101 ;!
b10 %
bz *
b0 b
bx s
bz /
bz .
bz B
bz >
b110011 H
b100101 \
bz L
0#
b1000 F
09
05
bx g
b0 c
b100101 K
1P
bx d
bz 4
b1100 +
0&
b1 N
b0 T
b0 e
b1 J
b101 ]
b1 M
b10011 `
#37
0$
#38
1$
b1110 ;!
#39
0$
#40
1$
b1111 ;!
#41
0$
#42
1$
b10000 ;!
#43
0$
#44
1$
b10001 ;!
#45
0$
#46
1$
b10010 ;!
b1111 )
b1100 (
b10000 ,
0W
b1 V
0'
b0 %
1#
1&
b1 T
#47
0$
b1100 8
b1 =
b1010 2
b1010 6
b0 1
b101 0
b1000000 A
b101000110101011001100011 *
17
b101000110101011001100011 -
b0 :
b1010 B
b1100011 /
b11 .
b1 ;
b1000000 >
1<
15
b1100 3
b110 4
#48
bz 4
bz -
bz 1
bz 8
bz T
1$
b10000 G
bz 6
bz =
b10011 ;!
b1 l
bz 2
b1 k
b1100 O
07
bz 0
bz V
b10000 (
b0 _
bz S
b110011 `
bz *
b1 b
bz A
b10100 ,
bz 3
bz >
bz .
bz :
b1010 \
b1 s
bz /
bz B
b1100011 H
b110 t
bz ;
b100101 c
1u
b1100 L
b110 h
b1010 K
b1100 F
b1 g
b101 I
05
0<
b1 d
b11000 Q
0P
1i
b10000 +
b1000 ^
b110 ]
b0 J
b1000000 N
bz e
#49
b1 2
b101 8
b101 4
b0 1
b100101000001010010011 -
0$
b1 6
b1 =
b0 0
b100101000001010010011 *
b10011 /
b1 3
b1 .
b1 :
b1 B
19
15
#50
05
bz 0
1$
bz 8
bz 2
b1100 e
b111 <!
bz -
b1000000 l
b1 |
b10100 G
bz 1
b10100 ;!
bz 4
bz =
b0 b
b10100 (
b101 O
b1000000 k
b10 V
bz 6
b11 _
b101 a
b1100011 `
b10 S
09
bz :
bz /
b10000 F
b11000 ,
bz *
bz N
b1 \
bz s
bz .
b1 K
b1100 t
b10011 H
bz 3
b1100 h
b1010 c
b1 L
0u
bz B
0i
bz g
b0 I
1P
bz d
bz Q
b101 ]
b10100 +
b1100 ^
#51
b1111111 1
b0 8
0$
b111 0
b111111110101 2
b11111111010111111111000001101111 -
b11111 4
b10101 6
b11111111010111111111000001101111 *
b1101111 /
b11111111111111111111111111110100 3
b101 .
b111111110101 B
#52
bz B
bz 4
bz 0
bz 1
b10000 ^
b10011 `
1$
b11000 G
b1000 <!
b1 e
bz 8
bz l
bz -
b0 a
b11000 (
b10101 ;!
bz 2
bz k
b0 O
b1 _
bz V
bz .
bz /
b11000 +
bz S
bz M
b1 c
b11100 ,
b10100 F
bz *
b10 s
b111111110101 \
bz 6
b101 h
b111111110101 K
b1101111 H
b101 t
bz 3
b11111 ]
1u
b1111111 J
1R
b11111111111111111111111111110100 L
b111 I
b10 g
1i
b1000 Q
0P
b10 d
#53
b0 0
b101 4
15
b111111111111 B
b1111111 1
0$
b11111111111100101000001010010011 -
b101 8
b10 =
b111111111111 2
b1 .
19
b1 :
b10011 /
b10 ;
b11111 6
b11111111111100101000001010010011 *
b11111111111111111111111111111111 3
1<
#54
0<
bz =
bz B
bz 0
bz d
b11111111111111111111111111110100 e
b101 _
05
b1001 <!
b1101111 `
b10100 ^
bz 4
b10 {
bz 8
1$
bz 1
b1111111 b
bz -
b1000 (
b111 a
b10110 ;!
bz 3
bz ;
bz .
b0 K
bx V
bz 2
b1000 +
bx S
bz /
b0 h
b1100 ,
b111111110101 c
bz :
09
b11000 s
bz *
bz 6
bz Q
b0 t
b10011 H
b0 L
0R
0u
b0 J
0i
b0 I
b11000 g
#55
b0 0
b10 A
b100101 B
b10 =
15
b110 8
b101 4
17
b10010100101000001100110011 -
b1 1
0$
b10 :
b10 >
b0 .
b100101 2
b110011 /
b101 6
19
b10010100101000001100110011 *
#56
bz *
bz 1
bz B
bz 0
z'
bz )
bx g
b0 a
bz A
b1 _
bx d
b0 e
b1 T
b10011 `
b1010 <!
b1100 G
bz -
05
bz =
b110 O
bz (
07
bz 4
bz 8
b0 b
1W
09
bz .
1$
b1 V
b10 M
b10111 ;!
0&
b100101 K
1P
bz >
b0 c
b1100 +
b10 N
bz :
bz ,
b1000 F
b100101 \
bz 6
bz /
bz 2
bz L
bx s
b101 ]
b110011 H
0#
b1 J
b10 %
#57
0$
#58
1$
b11000 ;!
#59
0$
#60
1$
b11001 ;!
#61
0$
#62
1$
b11010 ;!
#63
0$
#64
1$
b11011 ;!
#65
0$
#66
1$
0'
b100 T
b1111 )
b1100 (
b11100 ;!
b0 %
b10000 ,
0W
b100 V
1&
1#
#67
b0 1
b101000110101011001100011 *
b101 0
1<
b1010 B
0$
b1000000 A
15
b101000110101011001100011 -
b1100 8
b100 =
b110 4
17
b1100 3
b11 .
b100 ;
b1 :
b1000000 >
b1100011 /
b1010 6
b1010 2
#68
bz 2
bz 4
bz B
bz *
b110011 `
b1000 ^
bz 1
0<
bz 0
b1 b
b100 g
bz e
b0 _
b100 d
bz =
1$
bz T
b10 l
b10000 G
bz 8
bz A
b1100 O
bz -
b10 k
05
bz 6
bz ;
07
b10000 (
b0 J
b11101 ;!
b101 I
b100 M
bz .
b10100 ,
bz S
0P
b1010 K
bz 3
b1000000 N
b100101 c
b10000 +
b110 h
bz /
bz >
bz V
b1010 \
b1100 F
b100 s
1i
bz :
b1100 L
b11000 Q
b110 t
b1100011 H
b110 ]
1u
#69
b100101000001010010011 *
b101 4
b1 2
b1 B
b0 1
b0 0
b100101000001010010011 -
0$
b10 =
b101 8
b1 6
15
19
b1 .
b1 3
b10 :
b10011 /
#70
bz /
bz =
bz B
bz *
b1000000 k
b1100 e
0u
bz 2
bz g
b1100011 `
b1100 ^
b101 a
bz 4
b100 |
b0 b
1$
bz 0
bz 1
b11 _
b1011 <!
bz d
bz -
b1000000 l
b101 O
b10100 G
bz :
09
bz 8
b101 ]
b1010 c
b10100 (
05
bz N
b11110 ;!
b10 M
b0 I
bz 6
b11 S
b11000 ,
b1 K
1P
bz 3
bz .
b10011 H
b1100 h
b10100 +
b11 V
0i
b10000 F
b1 \
bz s
b1100 t
b1 L
bz Q
#71
b11111 4
b11111111010111111111000001101111 *
b1101111 /
b111111110101 B
b111111110101 2
b1111111 1
b111 0
0$
b11111111010111111111000001101111 -
b0 8
b10101 6
b101 .
b11111111111111111111111111110100 3
#72
bz 3
1$
bz /
bz 4
b0 O
b1000 Q
bz *
b0 a
bz k
1u
b1 e
b10000 ^
b11 g
b10011 `
bz 0
bz 2
bz B
bz l
bz 1
b1 _
b11 d
b1100 <!
bz .
bz -
b11100 ,
b1111111 J
b11000 G
b11111111111111111111111111110100 L
b11111 ]
b11000 (
b1 c
bz S
b11111 ;!
b111 I
bz M
bz 6
bz 8
b101 t
0P
b111111110101 K
1i
bz V
b101 h
b1101111 H
b11000 +
b11 s
b10100 F
1R
b111111110101 \
#73
b10011 /
b11111111111111111111111111111111 3
b11 =
0$
b11111111111100101000001010010011 *
b101 4
1<
b0 0
b1111111 1
b111111111111 2
b111111111111 B
b11111111111100101000001010010011 -
b1 .
b10 :
19
b11 ;
15
b101 8
b11111 6
#74
bz 6
bz 2
bz *
bz /
bz d
b10100 ^
1$
bz 3
b11111111111111111111111111110100 e
bz Q
bz =
0u
b111 a
bz 1
b101 _
b1101111 `
b1111111 b
b11000 g
b11 {
bz 0
bz 4
0<
bz 8
09
bz .
0R
b100000 ;!
b1101 <!
bz -
bz B
bz :
bx S
b0 J
b1100 ,
b111111110101 c
b0 L
b1000 (
05
bz ;
b0 I
bx V
0i
b0 t
b0 K
b11000 s
b10011 H
b0 h
b1000 +
#75
b101 4
b11 =
b10010100101000001100110011 *
b100101 2
b101 6
b110011 /
0$
b0 0
b1 1
b11 A
19
b110 8
b0 .
17
b100101 B
b10010100101000001100110011 -
b11 :
b11 >
15
#76
05
bz 1
bz 6
bz =
bz 4
b1100 +
z'
b100101 \
bz )
0#
bz 2
bx d
b110 O
bz *
b0 e
bz 0
bz /
b10011 `
b0 a
b1 _
1$
b0 b
b100 T
bx g
bz >
bz B
09
b0 c
1W
b100001 ;!
b10 %
bz A
0&
07
bz 8
b1100 G
bz ,
b1110 <!
bz .
b1 J
b11 N
b101 ]
bz :
bz -
b100 V
b1000 F
b11 M
bz (
bz L
b110011 H
1P
bx s
b100101 K
#77
0$
#78
1$
b100010 ;!
#79
0$
#80
1$
b100011 ;!
#81
0$
#82
1$
b100100 ;!
#83
0$
#84
1$
b100101 ;!
#85
0$
#86
1$
0'
b1111 )
1#
b101 T
b100110 ;!
0W
b0 %
1&
b10000 ,
b1100 (
b101 V
#87
b1010 6
b0 1
15
b101 =
b110 4
0$
b1010 2
b1100 3
b1100011 /
b101000110101011001100011 *
b101 0
1<
b1010 B
b1000000 >
17
b11 .
b1000000 A
b1100 8
b101000110101011001100011 -
b100 :
b101 ;
#88
bz ;
bz *
1$
bz 1
b1100 O
bz 6
b10000 +
bz V
bz 4
b101 d
b1000 ^
b1010 \
b11000 Q
bz =
05
b1010 K
b11 k
bz /
bz 3
1u
bz e
bz 2
b1 b
b110011 `
b0 _
b11 l
bz :
bz .
bz 0
b10000 (
b101 g
b101 s
b0 J
b100101 c
b110 h
07
bz B
bz T
0<
bz >
b100111 ;!
b10000 G
bz S
bz -
bz 8
b10100 ,
b110 ]
b1000000 N
0P
bz A
b1100 F
b101 I
b101 M
b1100011 H
b110 t
1i
b1100 L
#89
15
b0 1
b100101000001010010011 *
0$
b11 =
b101 4
b1 6
b1 3
b10011 /
b1 2
b1 .
19
b11 :
b0 0
b1 B
b101 8
b100101000001010010011 -
#90
bz -
bz /
bz =
05
b1 L
b101 O
b11 _
1$
bz *
bz 1
b100 V
b10100 +
bz Q
b1100 ^
bz d
b1 \
bz 3
bz 4
b1000000 k
b101 |
b1 K
b1100011 `
bz 6
0u
b101 a
b0 b
b1100 e
bz 8
bz :
bz .
0i
bz s
b1000000 l
b101000 ;!
bz 2
bz g
b10100 (
09
b1100 h
b1010 c
b1111 <!
bz B
bz 0
b1100 t
b100 S
b10100 G
1P
b101 ]
b11000 ,
bz N
b10011 H
b0 I
b10000 F
b11 M
#91
b11111111010111111111000001101111 -
b1101111 /
0$
b1111111 1
b11111111010111111111000001101111 *
b11111111111111111111111111110100 3
b11111 4
b10101 6
b101 .
b0 8
b111111110101 2
b111111110101 B
b111 0
#92
bz 0
bz 4
1$
b10000 ^
bz /
b1000 Q
b11111111111111111111111111110100 L
b1 _
b0 O
bz -
bz M
b11000 +
bz V
bz 3
bz 1
bz k
b100 d
b111111110101 \
b0 a
bz *
b111111110101 K
1u
b10011 `
bz B
bz .
b10100 F
b101 h
b101001 ;!
b1 e
bz l
b100 s
1i
1R
bz 6
b1111111 J
b100 g
b11000 (
bz 2
bz 8
0P
b10000 <!
b1 c
b111 I
b11000 G
b101 t
bz S
b1101111 H
b11100 ,
b11111 ]
#93
b0 0
b100 ;
b100 =
15
b11111111111100101000001010010011 -
b10011 /
b101 4
0$
b11111111111111111111111111111111 3
b1111111 1
b11111111111100101000001010010011 *
b1 .
b111111111111 B
b11 :
b11111 6
19
1<
b111111111111 2
b101 8
#94
bz 8
bz 1
bz /
bz 0
b1111111 b
0u
bz -
05
bz ;
bz =
b10100 ^
b0 L
bz Q
b101 _
bz 3
bz 4
b1000 +
bx V
b0 K
1$
bz d
b111 a
b100 {
bz 2
bz 6
bz *
b1100 ,
b1101111 `
b0 J
b11111111111111111111111111110100 e
b101010 ;!
b0 h
bz :
bz .
0i
b11000 s
bz B
0R
0<
09
b0 I
b1000 (
b11000 g
b10011 H
b111111110101 c
b10001 <!
bx S
b0 t
#95
b110011 /
b1 1
b110 8
b10010100101000001100110011 -
b0 0
b100 =
15
b101 4
0$
b101 6
b100101 2
b10010100101000001100110011 *
b0 .
b100 :
17
b100 >
b100101 B
b100 A
19
#96
09
bz 4
bz 0
b100 M
0#
z'
b0 a
b101 ]
bz L
bz -
bz /
b0 b
bz 8
bz 1
b110 O
05
bx d
b1 _
bz )
bz =
b1100 +
b100101 K
b100101 \
b101 V
bz A
bz :
1$
bx s
b1 J
b10 %
b10011 `
b1000 F
bz ,
bz .
b0 e
b101011 ;!
1W
bz *
bz 6
bz 2
b101 T
bz B
bz >
b10010 <!
bx g
0&
07
bz (
1P
b0 c
b110011 H
b1100 G
b100 N
#97
0$
#98
1$
b101100 ;!
#99
0$
#100
1$
b101101 ;!
#101
0$
#102
1$
b101110 ;!
#103
0$
#104
1$
b101111 ;!
#105
0$
#106
1$
0'
1#
b1111 )
b110000 ;!
b10000 V
b0 %
b10000 ,
0W
1&
b10000 T
b1100 (
#107
0$
b110 4
b1100 8
b101 0
b1100011 /
b101000110101011001100011 -
b10000 ;
15
b0 1
b1100 3
b10000 =
b1010 6
b101 :
b1000000 A
b11 .
b101000110101011001100011 *
1<
b1010 B
b1010 2
b1000000 >
17
#108
07
bz 3
bz /
1$
b1010 \
b110 t
b10000 (
b10000 M
bz 0
b110 ]
b1000 ^
1u
bz 8
b1 b
b1100 L
bz 4
bz 1
bz ;
b1100 O
b100 k
b11000 Q
bz -
05
b10000 d
b1010 K
b0 _
b10000 +
bz >
bz A
bz =
bz T
b100 l
b1000000 N
b0 J
bz S
b10000 s
bz :
b10000 G
b110 h
b1100 F
b110011 `
bz 6
b110001 ;!
1i
bz V
bz e
bz 2
0<
bz .
b1100011 H
b10100 ,
bz *
b10000 g
b101 I
bz B
b100101 c
0P
#109
b1 3
19
0$
b10011 /
b101 8
b0 0
b0 1
b101 4
15
b100101000001010010011 -
b100 =
b100 :
b1 6
b1 B
b1 2
b1 .
b100101000001010010011 *
#110
bz *
05
bz /
bz 3
b0 b
b1 \
1P
b11 _
1$
b100 M
b1100 t
b10100 (
b101 a
09
0u
b101 ]
b1100 ^
bz 4
bz 8
b1 K
b1 L
b101 O
bz 1
b1000000 k
b10000 |
bz 0
bz Q
bz d
bz .
bz =
0i
b10100 +
bz N
b1000000 l
bz -
b110010 ;!
bz s
b101 S
b1010 c
b1100 h
b10100 G
b1100011 `
b10000 F
bz 2
bz 6
b11000 ,
b101 V
b1100 e
bz :
b10011 <!
b10011 H
bz B
b0 I
bz g
#111
b11111111010111111111000001101111 *
b11111111111111111111111111110100 3
b1101111 /
0$
b111 0
b0 8
b11111 4
b1111111 1
b101 .
b11111111010111111111000001101111 -
b111111110101 B
b111111110101 2
b10101 6
#112
bz 6
bz 4
bz 3
b101 g
b1000 Q
1u
bz *
b111111110101 \
b1 _
0P
b0 a
b101 t
bz M
b11000 (
bz 8
1$
bz /
b11111 ]
b10000 ^
bz 0
b11111111111111111111111111110100 L
b111111110101 K
b0 O
bz k
bz 2
bz 1
b11000 G
b101 d
1i
b111 I
bz l
b1111111 J
b11000 +
b101 h
b1 c
b110011 ;!
bz S
b101 s
bz B
bz -
b1 e
b10011 `
1R
b10100 F
bz .
bz V
b11100 ,
b1101111 H
b10100 <!
#113
b11111111111111111111111111111111 3
15
b101 4
b11111 6
19
b11111111111100101000001010010011 *
0$
b101 8
b101 ;
b10011 /
b0 0
b1111111 1
b111111111111 2
b101 =
b11111111111100101000001010010011 -
b111111111111 B
1<
b100 :
b1 .
#114
bz .
bz /
bz 6
bz 3
b0 t
b1111111 b
b10101 <!
bz 4
b111 a
0u
bz Q
b11000 g
05
b101 _
bz ;
bz *
b0 K
b1000 (
09
bz 8
b0 L
1$
b10100 ^
bz :
bz 1
bz 0
b101 {
b10011 H
b110100 ;!
b111111110101 c
0i
bz d
b0 h
b0 I
b1000 +
b0 J
0<
bz =
b1100 ,
b11000 s
bx S
bz 2
0R
b11111111111111111111111111110100 e
b1101111 `
bz B
bx V
bz -
#115
b10010100101000001100110011 -
0$
b110011 /
b0 .
17
b101 6
b101 4
b10010100101000001100110011 *
15
b110 8
19
b0 0
b101 >
b1 1
b101 :
b101 A
b100101 B
b100101 2
b101 =
