Export Quick_Sort.vcd
$date
	Wed May 29 02:01:50 2024
$end
$version
	GTKWave Analyzer v3.3.100 (w)1999-2019 BSI
$end
$timescale
	1ns
$end
$scope module phoeniX_Testbench $end
$var wire 32 )! x17_a7[31:0] $end
$var wire 32 :! div_csr[31:0] $end
$var wire 32 #! x11_a1[31:0] $end
$var wire 64 ;! mcycle[63:0] $end
$var wire 64 <! minstret[63:0] $end
$var wire 32 9! mul_csr[31:0] $end
$var wire 32 8! alu_csr[31:0] $end
$var wire 32 v x0_zero[31:0] $end
$var wire 32 "! x10_a0[31:0] $end
$var wire 32 $! x12_a2[31:0] $end
$var wire 32 %! x13_a3[31:0] $end
$var wire 32 &! x14_a4[31:0] $end
$var wire 32 '! x15_a5[31:0] $end
$var wire 32 (! x16_a6[31:0] $end
$var wire 1 " reset $end
$var wire 32 ,! x20_s4[31:0] $end
$var wire 32 .! x22_s6[31:0] $end
$var wire 32 6! x30_t5[31:0] $end
$var wire 32 5! x29_t4[31:0] $end
$var wire 32 } x7_t2[31:0] $end
$var wire 32 0! x24_s8[31:0] $end
$var wire 32 +! x19_s3[31:0] $end
$var wire 32 { x5_t0[31:0] $end
$var wire 32 /! x23_s7[31:0] $end
$var wire 32 -! x21_s5[31:0] $end
$var wire 32 3! x27_s11[31:0] $end
$scope module uut $end
$var wire 1 $ clk $end
$var wire 32 r data_memory_interface_data[31:0] $end
$upscope $end
$var wire 32 !! x9_s1[31:0] $end
$var wire 32 7! x31_t6[31:0] $end
$scope module uut $end
$var wire 32 * instruction_memory_interface_data[31:0] $end
$upscope $end
$var wire 32 z x4_tp[31:0] $end
$var wire 32 x x2_sp[31:0] $end
$var wire 32 ~ x8_s0[31:0] $end
$var wire 32 1! x25_s9[31:0] $end
$var wire 32 y x3_gp[31:0] $end
$var wire 32 4! x28_t3[31:0] $end
$var wire 32 w x1_ra[31:0] $end
$var wire 32 *! x18_s2[31:0] $end
$var wire 32 2! x26_s10[31:0] $end
$var wire 32 | x6_t1[31:0] $end
$scope module uut $end
$var wire 32 A rs2_FD_wire[31:0] $end
$var wire 1 E write_enable_csr_FD_wire $end
$var wire 3 0 funct3_FD_wire[2:0] $end
$var wire 1 C read_enable_csr_FD_wire $end
$var wire 1 R jump_branch_enable_EX_wire $end
$var wire 3 . instruction_type_FD_wire[2:0] $end
$var wire 32 ( instruction_memory_interface_address[31:0] $end
$var wire 32 U div_output_EX_wire[31:0] $end
$var wire 12 2 funct12_FD_wire[11:0] $end
$var wire 1 X div_busy_EX_wire $end
$var wire 32 3 immediate_FD_wire[31:0] $end
$var wire 4 q data_memory_interface_frame_mask[3:0] $end
$var wire 4 ) instruction_memory_interface_frame_mask[3:0] $end
$var wire 1 n data_memory_interface_enable $end
$var wire 32 f load_data_MW_wire[31:0] $end
$var wire 1 ' instruction_memory_interface_state $end
$var wire 5 6 read_index_2_FD_wire[4:0] $end
$var wire 32 p data_memory_interface_address[31:0] $end
$var wire 32 T mul_output_EX_wire[31:0] $end
$var wire 12 B csr_index_FD_wire[11:0] $end
$var wire 32 D csr_data_FD_wire[31:0] $end
$var wire 32 S alu_output_EX_wire[31:0] $end
$var wire 32 = rs1_FD_wire[31:0] $end
$var wire 32 [ csr_data_out_EX_wire[31:0] $end
$var wire 32 Q address_EX_wire[31:0] $end
$var wire 32 Z csr_rd_EX_wire[31:0] $end
$var wire 32 > RF_source_2[31:0] $end
$var wire 32 : RF_source_1[31:0] $end
$var wire 32 ? FW_source_2[31:0] $end
$var wire 1 5 read_enable_1_FD_wire $end
$var wire 5 8 write_index_FD_wire[4:0] $end
$var wire 1 9 write_enable_FD_wire $end
$var wire 5 4 read_index_1_FD_wire[4:0] $end
$var wire 32 , next_pc_FD_wire[31:0] $end
$var wire 1 W mul_busy_EX_wire $end
$var wire 7 1 funct7_FD_wire[6:0] $end
$var wire 1 & instruction_memory_interface_enable $end
$var wire 7 / opcode_FD_wire[6:0] $end
$var wire 1 7 read_enable_2_FD_wire $end
$var wire 1 o data_memory_interface_state $end
$var wire 3 I funct3_EX_reg[2:0] $end
$var wire 32 L immediate_EX_reg[31:0] $end
$var wire 32 - instruction_FD_reg[31:0] $end
$var wire 32 ^ pc_MW_reg[31:0] $end
$var wire 3 a funct3_MW_reg[2:0] $end
$var wire 3 _ instruction_type_MW_reg[2:0] $end
$var wire 32 G next_pc_EX_reg[31:0] $end
$var wire 7 H opcode_EX_reg[6:0] $end
$var wire 1 P write_enable_EX_reg $end
$var wire 5 h write_index_MW_reg[4:0] $end
$var wire 12 c funct12_MW_reg[11:0] $end
$var wire 32 ; FW_source_1[31:0] $end
$var wire 1 < FW_enable_1 $end
$var wire 32 F pc_EX_reg[31:0] $end
$var wire 32 d execution_result_MW_reg[31:0] $end
$var wire 32 + pc_FD_reg[31:0] $end
$var wire 32 M rs1_EX_reg[31:0] $end
$var wire 7 b funct7_MW_reg[6:0] $end
$var wire 5 O write_index_EX_reg[4:0] $end
$var wire 32 g write_data_MW_reg[31:0] $end
$var wire 1 @ FW_enable_2 $end
$var wire 32 N rs2_EX_reg[31:0] $end
$var wire 5 ] read_index_1_EX_reg[4:0] $end
$var wire 32 Y csr_data_EX_reg[31:0] $end
$var wire 12 \ csr_index_EX_reg[11:0] $end
$var wire 12 K funct12_EX_reg[11:0] $end
$var wire 32 e immediate_MW_reg[31:0] $end
$var wire 32 V execution_result_EX_reg[31:0] $end
$var wire 7 ` opcode_MW_reg[6:0] $end
$var wire 32 k rs2_MW_reg[31:0] $end
$var wire 2 % stall_condition[1:2] $end
$var wire 1 i write_enable_MW_reg $end
$var wire 7 J funct7_EX_reg[6:0] $end
$scope module fetch_unit $end
$var wire 1 # enable $end
$upscope $end
$scope module load_store_unit $end
$var wire 32 j load_data[31:0] $end
$var wire 32 m store_data_reg[31:0] $end
$upscope $end
$scope module register_file $end
$var wire 32 s write_data[31:0] $end
$upscope $end
$scope module load_store_unit $end
$var wire 32 l store_data[31:0] $end
$upscope $end
$scope module register_file $end
$var wire 5 t write_index[4:0] $end
$var wire 1 u write_enable $end
$upscope $end
$upscope $end
$upscope $end
$enddefinitions $end
$dumpvars
#0
bx S
0<
b0 *!
bz :
bz =
b0 ;!
b0 )!
b0 :!
b0 z
b0 v
b0 ,!
bz >
bx Q
bx [
b0 x
b0 ~
bx Z
b0 .!
bz 1
bz 8
05
b0 1!
bz ?
b0 y
b0 "!
b0 6!
0W
bz 4
09
b0 4!
b0 w
bz ,
b0 5!
bz .
bx ^
07
b0 <!
0&
bz /
b0 2!
b0 $!
b0 }
bz -
bx I
xo
b0 |
bz A
bx L
b0 0!
bz ;
bx G
bx _
0E
bx a
bz 0
b0 %!
b0 +!
bx c
xP
bx H
0C
xR
bx h
b0 {
bz D
xn
bx g
bx d
b0 9!
bx F
b0 #!
bz (
b0 &!
b0 /!
bx O
bx M
b0 +
bx U
bz 2
bx b
b0 -!
bx V
bx ]
bx N
0X
0@
bz 3
b0 '!
b0 3!
bx e
bx \
bx Y
bx q
bz )
bx K
1$
bx *
bx m
b0 %
b0 8!
bx `
bx k
bx f
b0 (!
bx r
bx j
bx J
xi
z'
bz 6
0#
b0 !!
bz B
b0 7!
bx l
bx p
bx s
1"
xu
bx T
bx t
#1
bz *
0$
#2
1$
bz S
bz [
bz Q
bz Z
0R
bz I
bz L
bz G
bz H
0P
bz U
b0 F
bz M
bz O
bz N
bz V
bz ]
bz Y
bz \
bz T
bz K
bz J
#3
0$
#4
1$
bz h
b0 ^
zo
bz _
bz a
bz c
0n
bz g
bz d
bz b
bz q
bz e
bz t
0u
bz `
bz m
bz k
bz f
0i
bz r
bz j
bz s
bz l
bz p
#5
0$
#6
1$
#7
0$
#8
1$
#9
0$
#10
1$
b100 ,
1&
b1111 )
b0 (
0'
1#
0"
#11
b0 :
b0 =
15
b0 1
b1010 8
19
b0 4
0$
b1 .
b10011 /
b101000000000010100010011 -
b0 0
b101000000000010100010011 *
b1010 2
b1010 3
b1010 6
b1010 B
#12
bz B
bz -
bz 8
b1000 ,
b0 J
b10011 H
b1 ;!
bz 1
bz :
b1010 S
05
bz =
bz /
1$
bz 4
b100 G
09
bz .
b1010 L
b0 I
bz 6
bz *
b1010 K
b0 ]
1P
b100 +
bz 0
b0 M
b1010 V
b1010 O
bz 3
b1010 \
bz 2
b100 (
#13
b1011 8
b110100000000010110010011 -
b1101 B
b0 :
b0 1
b1 .
0$
b10011 /
15
b0 =
19
b0 4
b1101 2
b110100000000010110010011 *
b1101 6
b0 0
b1101 3
#14
bz 3
09
bz B
b1000 (
b1101 L
b1101 S
b1100 ,
bz -
bz 8
b10 ;!
bz =
1$
b0 a
b1 _
bz .
bz :
bz 1
05
bz /
b1000 G
b1010 h
bz 0
bz *
bz 4
b1010 c
b1101 K
b0 b
bz 2
b1010 d
b100 F
b1000 +
b1010 g
bz 6
b1101 V
b1010 s
b1010 e
b1010 t
1u
b10011 `
b1101 \
b1011 O
1i
#15
b111100000000011000010011 -
b1111 B
19
b1111 3
b10011 /
b1100 8
b0 =
0$
15
b1 .
b0 1
b0 :
b0 4
b111100000000011000010011 *
b0 0
b1111 2
b1111 6
#16
bz 6
bz 1
bz B
bz -
b1100 G
b1100 (
b10000 ,
b1111 S
b1010 "!
b1111 L
bz .
bz /
b11 ;!
b1 <!
bz 3
09
05
bz 8
1$
b100 ^
bz =
bz 2
bz *
bz :
b1011 h
b1100 O
b1000 F
bz 4
b1111 K
b1101 c
b1101 d
bz 0
b1111 \
b1101 g
b1100 +
b1101 e
b1101 s
b1111 V
b1011 t
#17
b1100 B
b0 1
b1100 6
b110000000000011010010011 -
b1111 ?
0$
b10011 /
b1 .
b1101 8
b1111 A
15
b1100 3
19
b0 :
b0 =
b110000000000011010010011 *
b1100 2
b0 4
1@
b0 0
#18
bz 0
bz 3
bz 6
b1100 t
b1000 ^
b1100 S
bz 1
bz B
b10100 ,
b10000 (
b10000 G
05
bz ?
b1100 L
bz -
b100 ;!
bz A
1$
b10 <!
bz 8
bz /
bz .
0@
bz 2
bz :
b1100 K
09
b1101 #!
b1100 V
bz *
b1101 O
b1100 h
bz =
b1100 F
b1111 N
bz 4
b1111 s
b1111 d
b1111 c
b10000 +
b1111 g
b1100 \
b1111 e
#19
b10011 /
b0 6
b0 3
b0 0
b0 B
b0 1
b1111 8
15
b11110010011 -
0$
b0 =
b1 .
b0 :
b0 2
19
b11110010011 *
b0 4
#20
bz 4
bz -
bz 0
bz /
b1100 e
b11000 ,
bz 3
bz 6
b1100 ^
b1101 t
b0 S
05
bz B
b10100 (
b1111 $!
b10100 G
bz 8
b11 <!
b0 L
bz 1
b101 ;!
bz *
bz 2
bz =
b0 K
1$
b1111 l
b0 \
bz :
b1101 h
bz .
b0 V
b1111 O
09
b1100 g
bz N
b10000 F
b1100 c
b1111 k
b1100 d
b1100 s
b10100 +
#21
b0 1
b0 0
b110101111000011110110011 -
1<
b1111 4
b0 >
b1101 6
b110011 /
b1101 B
17
15
b1100 ?
b0 ;
b1111 8
b1100 A
b0 .
b0 =
b110101111000011110110011 *
1@
b1101 2
0$
b0 :
19
#22
09
bz 8
bz >
bz -
bz 1
b10000 ^
b11000 +
bz 0
bz 4
b110011 H
0<
b0 e
b11100 ,
bz ;
bz B
bz L
b1111 t
bz /
bz 6
b1100 S
bz ?
b100 <!
b11000 (
05
b11000 G
b1100 %!
07
bz :
bz 2
bz =
b110 ;!
bz .
b0 s
b1101 K
bz A
0@
b1111 h
b1111 ]
bz *
bz l
b1101 \
1$
b0 d
b1100 V
b0 c
b10100 F
b1100 N
b0 g
bz k
#23
b0 1
19
b1101 8
b10000000000011010010011 -
b0 4
b100 3
b0 0
b100 B
15
b100 6
b10011 /
b10000000000011010010011 *
b1 .
b100 2
b0 :
b0 =
0$
#24
1$
bz 6
bz 4
bz 1
b1100 k
bz -
b10100 ^
bz 8
b10011 H
b11100 +
09
05
b11100 G
b100000 ,
bz e
b0 _
b100 L
bz B
bz 0
bz 3
b11100 (
b100 S
b101 <!
bz =
bz 2
bz .
bz *
b1100 g
b111 ;!
bz /
b0 ]
b100 K
b1100 s
bz :
bz N
b1100 l
b1101 O
b1101 c
b100 \
b100 V
b1100 d
b11000 F
b110011 `
#25
b1010 6
b1010 >
1<
0$
b0 8
b1111 4
b0 1
b101001111010000000100011 -
15
b1100 ;
b0 3
b10 0
b1010 B
b101001111010000000100011 *
17
b10 .
b1100 =
b1010 2
b100011 /
b1010 A
b0 :
#26
bz :
bz 0
bz 4
bz 6
bz S
b100011 H
b10011 `
bz 8
bz >
1$
b11000 ^
bz k
0<
bz 3
bz 1
b100100 ,
b1100 Q
b100000 +
b100000 (
b100000 G
b1101 t
bz ;
b1 _
b100 e
05
b0 L
bz -
bz A
bz 2
07
b1111 ]
b10 I
bz *
b11100 F
b110 <!
bz B
b1100 M
bz =
b1000 ;!
0P
b100 g
bz .
b1101 h
b1100 '!
bz /
b100 d
b100 s
b1010 K
b100 c
b0 O
bz l
b1010 N
bz V
b1010 \
#27
b1101 6
b0 0
b1100 :
b1111 4
0$
b1100 >
b1111 8
15
19
b100000 1
b100 ?
b0 .
b100 A
b1000000110101111000011110110011 -
b1000000110101111000011110110011 *
17
b10000001101 2
b10000001101 B
b1100 =
1@
b110011 /
#28
bz /
bz 1
1$
bz 6
bz L
b100 %!
b11100 ^
0i
b10000001101 \
bz 4
b1000 S
b100000 J
bz :
b100011 `
b110011 H
bz 0
09
bz 8
b100100 +
b1010 k
b1100 p
bz >
bz Q
b10 a
b101000 ,
05
b100100 G
b100100 (
b0 e
b10 _
b0 t
1o
0@
bz B
bz -
b1000 V
b100000 F
bz A
bz .
bz ?
b0 I
bz 2
bz g
b111 <!
1n
07
1P
b1001 ;!
bz *
bz =
b100 N
b0 h
b1111 q
b1010 c
b10000001101 K
bz s
b1010 m
bz d
b1010 l
b1111 O
0u
b1010 r
#29
b1011 6
b100011 /
0$
b0 1
b1100 :
b1111 4
b1101 >
b10 0
b0 3
1<
b0 8
15
b1000 ;
b1101 A
b101101111010000000100011 -
b1011 B
17
b10 .
b1011 2
b101101111010000000100011 *
b1000 =
#30
bz =
05
bz 1
bz 6
bz r
b1111 t
b110011 `
b0 L
1$
1i
b100000 ^
bz /
b0 J
b1011 \
bz S
bz 8
bz 0
bz 4
b100011 H
bz :
b0 _
bz >
bz p
b101000 +
b100 k
0<
b0 a
b1000 Q
bz 3
b101000 (
b101100 ,
b101000 G
bz e
bz *
07
bz ;
zo
1u
0P
b100100 F
bz V
bz B
bz A
b10 I
b1000 M
bz -
0n
b100000 b
b1000 g
b1000 <!
bz 2
bz .
b1011 K
b1010 ;!
b0 O
b10000001101 c
bz q
b1101 N
b1111 h
b100 l
b1000 s
b1000 d
bz m
#31
b100000 1
15
b1000 =
b1101 6
b110011 /
0$
b100 >
b0 0
19
b1111 8
b1111 4
b1100 :
1<
17
b1000000110101111000011110110011 *
b1000 ;
b1000000110101111000011110110011 -
b10000001101 B
b100 A
b10000001101 2
b0 .
#32
bz .
bz :
bz 6
bz 1
b101100 G
b100000 J
b1101 r
b1101 m
bz =
b100011 `
b0 t
05
b100100 ^
bz L
0i
bz 4
09
1$
b110000 ,
b10000001101 \
bz /
b100 S
bz 0
b10 _
b110011 H
bz >
bz 8
b101100 +
b1000 p
b101100 (
b1101 k
b10 a
bz Q
bz 2
bz -
0<
b0 e
bz d
0u
1o
b0 b
bz ;
b100 V
1P
b101000 F
bz *
07
b0 I
1n
bz A
bz B
b1001 <!
b1000 '!
bz g
bz s
b1111 O
b1011 c
b1011 ;!
b10000001101 K
b1101 l
b1111 q
b0 h
b100 N
#33
b1100 6
b1000 :
b10 .
b0 1
15
b100 =
b10 0
0$
b1111 4
b100011 /
b0 8
b0 3
b1111 >
17
b110001111010000000100011 -
b1100 2
1<
b110001111010000000100011 *
b100 ;
b1111 A
b1100 B
#34
bz B
bz 3
bz 1
bz 6
b0 a
b101000 ^
b110000 G
b1111 N
bz .
bz r
b0 J
bz :
b1111 t
bz m
b110011 `
bz 8
bz 0
05
1i
b0 L
b100 k
bz =
b1100 \
b110100 ,
bz S
bz /
b100011 H
b0 _
bz 4
1$
bz p
b110000 (
b110000 +
bz A
0<
07
b100 Q
bz >
b100 d
bz e
b1111 h
bz 2
b100000 b
1u
zo
bz -
b101100 F
0P
bz V
b100 M
bz ;
bz *
b0 O
b10 I
0n
bz q
b100 s
b100 g
b1010 <!
b100 l
b10000001101 c
b1100 K
b1100 ;!
#35
b0 1
b10000 3
b10000 B
b10000 6
b0 :
b1 .
b0 =
b0 0
b1111 8
19
15
0$
b0 4
b10011 /
b1000000000000011110010011 -
b10000 2
b1000000000000011110010011 *
#36
bz *
bz 4
bz 6
bz 1
b110100 (
b0 t
b10 a
b1101 ;!
bz B
b110100 G
b101100 ^
bz 3
bz N
b1111 r
1$
bz 0
bz .
b100011 `
b1111 m
bz :
b100 p
bz =
b1111 k
0i
b10000 L
05
b111000 ,
b10000 \
09
bz 8
b10000 S
b10011 H
b10 _
bz 2
bz /
b110100 +
bz Q
b0 ]
b10000 K
b0 h
bz d
b0 e
1P
b110000 F
0u
b0 b
1o
bz -
b1100 c
b10000 V
b0 M
b1111 q
1n
b0 I
b1111 O
b100 '!
b1111 l
bz s
b1011 <!
bz g
#37
b1100 3
b1100 6
b0 4
b110000000000011000010011 *
b0 1
b1100 B
b0 =
b1 .
b0 0
0$
b0 :
b1100 8
19
15
b10011 /
b1100 2
b110000000000011000010011 -
#38
bz -
09
bz *
bz 6
b10000 g
b111000 (
bz 3
bz 4
b0 a
b1111 t
b110000 ^
b1110 ;!
b111000 G
bz 8
bz .
bz B
bz r
bz 1
b1100 S
bz =
bz m
b10011 `
bz p
bz :
1i
bz k
1$
bz 0
b1100 L
b111100 ,
b1100 \
bz 2
05
b1100 <!
1u
b1 _
b110100 F
b111000 +
b10000 d
b1100 K
b1111 h
b10000 e
bz /
b10000 s
zo
0n
bz q
b10000 c
b1100 V
bz l
b1100 O
#39
b0 6
19
b1010010011 -
b1010010011 *
b0 3
b0 4
b0 =
b1 .
b101 8
b0 B
b0 1
b0 0
0$
b0 :
15
b0 2
b10011 /
#40
bz /
1$
bz *
bz 6
b1000000 ,
b110100 ^
b101 O
bz -
b111100 (
b1100 g
09
b1100 t
bz 0
bz .
bz 3
b1111 ;!
b0 L
b111100 G
bz =
b0 S
bz 4
bz 1
bz B
bz 8
bz 2
bz :
b0 K
b0 \
b1100 d
b1101 <!
b111100 +
b111000 F
05
b0 V
b1100 h
b1100 e
b1100 s
b1100 c
b10000 '!
#41
b1 B
b1 6
0$
b10011 /
b100000000001100010011 *
b100000000001100010011 -
b0 1
b1 .
19
b0 0
b1 3
b0 4
b0 =
b1 2
b110 8
b0 :
15
#42
05
bz 4
bz /
bz 6
b0 g
bz B
1$
b111000 ^
b1000100 ,
b1000000 (
b110 O
bz 3
bz .
bz -
b1000000 G
bz *
b101 t
bz 1
b1 L
b10000 ;!
bz 0
b1100 $!
09
b1 S
bz :
bz 2
b0 c
b1110 <!
bz =
b0 d
b1 \
b1 K
bz 8
b0 s
b1000000 +
b1 V
b111100 F
b0 e
b101 h
#43
19
b10011 /
15
b0 4
b1 6
0$
b1 B
b1 .
b1 3
b100000000001110010011 *
b100000000001110010011 -
b0 0
b0 1
b0 :
b0 =
b1 2
b111 8
#44
bz 8
bz 0
bz 6
09
b1001000 ,
b110 h
bz 4
b111100 ^
b1 g
05
bz /
bz -
bz .
b1000100 (
b110 t
b111 O
bz B
1$
b1000100 G
bz *
bz 3
b10001 ;!
bz 2
bz :
b1 d
bz 1
b1 e
b1111 <!
b1 c
bz =
b1000000 F
b1 s
b1000100 +
#45
b100 3
b100 6
b1101 8
b0 0
19
b0 4
b10000000000011010010011 *
b10000000000011010010011 -
b10011 /
15
b1 .
b100 B
0$
b0 1
b100 2
b0 :
b0 =
#46
bz =
bz B
bz 0
bz 3
b1001000 +
bz 8
b1000000 ^
b1001100 ,
bz 6
b111 h
bz .
bz -
bz 4
09
b1101 O
bz *
b111 t
b1001000 (
b1 |
05
b1001000 G
bz /
b100 L
bz :
bz 1
b10010 ;!
b100 S
1$
bz 2
b100 \
b10000 <!
b100 K
b1000100 F
b100 V
#47
b110011 /
b10000001101 B
b10000 =
b0 0
b1111 8
b1000000110101111000011110110011 *
b0 .
b1101 6
b1000000110101111000011110110011 -
19
b1111 4
15
b10000 :
b100 >
1@
b100 A
17
b100000 1
b100 ?
b10000001101 2
0$
#48
1$
bz 4
bz =
b1100 V
b100 g
b110011 H
b1010000 ,
bz B
b1000100 ^
bz /
b100000 J
b1001100 +
09
bz 6
bz 0
b100 N
b1001100 G
b1101 h
bz .
b1111 O
bz *
b1 }
bz 8
bz -
b1101 t
b1001100 (
bz 2
07
bz >
b1001000 F
b10011 ;!
bz :
bz L
05
bz A
0@
b100 e
b1111 ]
b100 s
b100 d
bz ?
bz 1
b100 c
b10000001101 K
b1100 S
b10000 M
b10001 <!
b10000001101 \
#49
b1100011 /
b1111 4
0$
b1100 =
b1000100 3
b1001101 B
b100110101111000001001100011 -
b1101 6
b11 .
b0 0
b100 8
b100110101111000001001100011 *
b1001101 2
17
1<
b100 >
15
b10000 :
1@
b100 A
b1100 ;
b10 1
b100 ?
#50
bz ?
bz 8
bz =
bz /
b1111 t
bz V
b1001101 \
1$
b1001000 ^
b1100 g
bz 4
b1100011 H
b1010100 ,
bz 0
bz -
b100 O
b10 J
b1010000 +
bz B
bz 3
b1111 h
b1010000 G
bz .
bz 6
b110011 `
b100 k
bz 1
bz :
bz 2
b10100 ;!
b1010000 (
bz *
b1001100 F
b10010 <!
b100 l
05
07
bz e
b1000100 L
b10010000 Q
bz >
b0 _
0P
0<
bz ;
bz A
b10000001101 c
b1100 s
b100000 b
0@
b1100 M
b1100 d
bz S
b1001101 K
#51
b1111 4
b11 /
b1110 8
b1100 =
0$
b0 6
b0 B
b10 0
19
b1111010011100000011 -
b1 .
b0 3
b1111010011100000011 *
b0 1
b10000 :
b0 2
15
b1100 ;
1<
#52
0<
bz .
bz 8
bz 4
b1100011 `
b1100 '!
b0 K
bz /
b100 t
bz g
b0 \
b1001100 ^
bz -
bz B
1$
b11 H
bz =
b1011000 ,
bz 6
b1010100 +
b0 J
bz N
b1110 O
09
bz 0
b100 h
b1010100 G
0i
bz ;
bz :
bz *
b11 _
bz 3
b1010100 (
b10101 ;!
bz 1
b10011 <!
b1010000 F
b1100 Q
b1000100 e
0u
b0 L
05
bz 2
bz d
1P
b10 b
bz s
b1001101 c
b10 I
#53
b0 4
b1 .
b110 8
b10011 /
b1 B
b100000000001100010011 -
b1 6
0$
b0 =
b0 0
19
b100000000001100010011 *
b0 :
b1 3
b0 1
15
b1 2
#54
bz 2
bz 0
bz .
b0 I
b1011000 G
bz 4
b11 `
b1 V
b1110 t
b10 a
b1 K
bz =
bz -
b1110 h
b1 \
b1011000 +
b1010000 ^
bz B
bz 8
bz /
b10011 H
b1011100 ,
1$
bz 6
b110 O
b1100 p
05
bz :
b0 c
1i
bz k
b0 e
b0 ]
b1 _
b1 S
bz *
bz Q
b1011000 (
bz l
09
b1010100 F
b10110 ;!
b10100 <!
bz 1
bz 3
1u
b1 L
1n
0o
b0 b
b0 M
b1111 q
#55
b0 0
b1010 g
b100 2
b1 .
b0 4
b100 6
b1101 8
b10000000000011010010011 -
b0 =
b100 B
b1010 r
0$
b10011 /
15
b0 :
19
b10000000000011010010011 *
b1010 f
b100 3
b1010 s
b0 1
b1010 j
#56
bz j
1$
bz 2
bz q
b110 t
b1101 O
b1 g
b100 V
bz 0
b1011100 G
b10011 `
bz r
bz -
bz 4
b0 a
bz .
b100 K
bz 8
bz 6
b110 h
b1010100 ^
b100 \
b1011100 +
bz B
bz =
b1100000 ,
bz 1
bz :
b1 e
bz p
b1011000 F
b1010 &!
b1 c
05
b100 S
bz /
b1011100 (
b1 s
bz f
b10101 <!
b10111 ;!
bz *
09
b1 d
bz 3
zo
b100 L
0n
#57
b100 =
b0 0
b100110 2
1<
b1 ?
0$
b100110 B
b10011001101000011010110011 -
b110 6
b1101 4
b1101 8
b0 .
b1 1
b100 ;
b100 :
15
b1 >
17
b110011 /
b1 A
19
b10011001101000011010110011 *
1@
#58
0@
bz 8
0<
bz 2
bz =
bz 0
bx V
b100 g
b1101 t
1W
bz 4
bz 6
b1101 h
b1100000 G
bz -
bz ?
bz B
1$
b100110 K
b1100000 +
b1 N
b1 J
b100110 \
b1011000 ^
b110011 H
bz *
05
bz .
bz ,
b100 M
0&
bz L
b100 e
bz :
bz 1
b1011100 F
b1101 ]
bz ;
b100 c
0#
09
bz >
b11000 ;!
bx T
bz (
b10 %
b10110 <!
b100 s
bz A
07
z'
bz /
b100 d
bz )
#59
0$
#60
1$
b0 t
b0 h
0i
b0 e
b0 c
0u
b11001 ;!
b10111 <!
#61
0$
#62
1$
b11010 ;!
#63
0$
#64
1$
b11011 ;!
#65
0$
#66
1$
b11100 ;!
#67
0$
#68
1$
b100 V
b1111 )
0W
b11101 ;!
b1100100 ,
1&
b1100000 (
1#
b100 T
0'
b0 %
#69
1@
b1010 8
b0 0
b10000001101 2
b1100 =
0$
b100 ?
b1111 4
b1000000110101111000010100110011 -
b1101 6
b10000001101 B
15
b1000000110101111000010100110011 *
b0 .
b1100 :
b100000 1
b110011 /
b100 >
19
17
b100 A
#70
bz A
bz 6
bz 0
bz 8
0@
b1010 O
bz -
bz ?
b1000 V
b1101 t
b110011 `
1$
b1011100 ^
bz =
bz 2
b1100100 G
bz 4
b10000001101 \
b100000 J
b100 N
b1100100 +
b10000001101 K
07
bz .
bz B
b11110 ;!
b1101 h
b1 k
b1100 M
b1000 S
bz *
b1111 ]
b0 _
05
b1100000 F
b1 l
09
bz 1
bz :
1u
bz T
bz e
b1101000 ,
b1 b
1i
bz >
b1100100 (
b100110 c
bz /
#71
b1100011 /
b100 8
1<
b0 0
b0 6
b0 A
b10000001010000001001100011 -
0$
b100000 2
b1000 =
b1010 4
15
17
b1000 ;
b100000 B
b11 .
b10000001010000001001100011 *
b1 1
b1010 :
b0 >
b100100 3
#72
bz 3
bz =
bz 0
b1101000 +
b11000 <!
0<
bz 8
b1000 g
bz /
bz 2
bz 6
b1100000 ^
b100 O
b0 N
bz V
b1010 t
1$
bz A
b1 J
bz -
b100000 \
b1101000 G
bz >
bz B
07
b1010 h
b1100011 H
b100000 K
05
b11111 ;!
bz 4
b10000001101 c
bz ;
b1000 M
b1000 d
b100100 L
b100 k
b1010 ]
bz S
b10001000 Q
bz :
bz .
b1100100 F
0P
b100 l
b1101000 (
bz 1
bz *
b100000 b
b1101100 ,
b1000 s
#73
b10011 8
b1000 =
b0 3
1<
b10 0
b1010010100110000011 -
b11 /
b0 6
b0 2
0$
15
b0 B
b1000 ;
b1010 4
b1010 :
19
b1 .
b1010010100110000011 *
b0 1
#74
bz 1
bz 2
bz 3
bz s
b0 \
bz =
b10 I
bz 8
b11001 <!
b1101100 +
bz 6
bz -
b10011 O
bz g
b1000 "!
bz 0
0<
b1100011 `
b1100100 ^
bz /
bz N
b0 J
b100 t
bz *
bz B
b1110000 ,
b1101100 G
b0 K
b11 H
b100 h
05
1$
b0 k
b100000 ;!
b100000 c
b0 L
bz d
b11 _
bz .
bz 4
b1 b
b100100 e
b1101000 F
b1000 Q
bz ;
0u
09
b1101100 (
1P
b0 l
bz :
0i
#75
b1100 8
b1110 2
bz )
b0 1
b1100 3
b1 %
b101 0
b1110 6
b111010011101011001100011 -
b1100011 /
1<
b1010 A
b0 :
b1010 >
bz ,
17
z'
b1110 B
b111010011101011001100011 *
15
0$
b10011 4
0&
b11 .
bz (
0#
#76
1#
0<
bz 1
bz 8
1n
1i
b1111 )
b0 I
b1111 q
bz 2
bz /
b0 %
b11010 <!
bz 3
b10 a
b0 O
bz -
bz 0
bx V
bz 6
b1101000 ^
b11 `
b1101100 (
bz *
07
b10011 t
b1110000 ,
bz A
b1000 p
bz >
bz :
bz B
b0 c
b10011 H
b10011 h
0'
b100001 ;!
bz k
bz M
bz .
1$
05
bx S
bz l
b1 _
b0 e
b0 b
0o
1&
1u
bz Q
bz 4
0P
#77
b0 1
b1101 j
1<
b1100 8
b1101 s
b1101 =
b1110 6
b1101 r
b1110 2
b1100011 /
b1101 g
b1100 3
b101 0
b111010011101011001100011 -
b10011 4
b1010 A
b111010011101011001100011 *
17
b0 :
b1010 >
b1110 B
0$
b11 .
b1101 f
15
b1101 ;
#78
bz ;
bz 0
bz 8
b101 I
0<
0n
bz j
0i
bz 1
b1110 \
bz 3
bz r
b11011 <!
bz q
b1010 N
b1110000 +
bz 6
bz =
bx s
bx g
bz V
b0 a
bz /
bz 2
b1100 O
b1101 +!
1R
05
bz :
bz 4
b10011 `
b10011 ]
b1110000 G
bz -
b1110100 ,
b1110000 (
b1100 L
b100010 ;!
b0 t
07
bz A
bz p
b1110 K
bz *
b0 h
b1100011 H
bz f
1$
b1111000 Q
bx d
b1101100 F
b1101 M
bz B
bz >
bz S
bz .
0u
zo
#79
b0 0
b110 8
b0 1
b111 2
b1 =
b111 6
b110011 /
b11100110000001100110011 *
b1 :
15
b110 4
b11100110000001100110011 -
b1 A
17
b0 .
0$
b111 B
b1 >
19
#80
09
bz 6
b1101100 ^
b0 I
bz =
b0 O
b1111000 +
bz N
bz 2
bz 8
bz 0
bz 1
bz g
bz s
b101 a
bx V
bz >
bz -
bz :
0R
b1111000 (
bz *
b1111100 ,
b1100011 `
bz /
bz 4
b1100 t
b100011 ;!
b0 L
05
b0 K
b1110 c
bz B
bz A
bz M
b10011 H
b1010 k
b1100 h
b11 _
bz d
bz Q
b1010 l
1$
bx S
b1100 e
bz .
07
